<svg xmlns="http://www.w3.org/2000/svg" width="114" height="114" viewBox="0 0 114 114">
  <g id="Electrical_Machines_Laboratory" data-name="Electrical Machines Laboratory" transform="translate(-4034 -2722)">
    <g id="Ellipse_166" data-name="Ellipse 166" transform="translate(4034 2722)" fill="none" stroke="#393185" stroke-width="1">
      <circle cx="57" cy="57" r="57" stroke="none"/>
      <circle cx="57" cy="57" r="56.5" fill="none"/>
    </g>
    <g id="Electrical_Machines_Laboratory-2" data-name="Electrical Machines Laboratory" transform="translate(138 -165)">
      <rect id="Rectangle_6153" data-name="Rectangle 6153" width="62" height="62" transform="translate(3922 2913)" fill="none"/>
      <g id="Outline" transform="translate(3926.279 2917.279)">
        <path id="Path_1927" data-name="Path 1927" d="M51.6,2H25.539a.841.841,0,0,0-.841.841V12.929a.841.841,0,0,0,1.681,0V3.681H50.76V21.336H33.946V16.292a.841.841,0,0,0-.841-.841H22.177V6.2a.841.841,0,0,0-.841-.841H18.321l1.928-1.928A.841.841,0,1,0,19.06,2.246L16.292,5.015,13.523,2.246a.841.841,0,1,0-1.189,1.189l1.928,1.928H4.522a.841.841,0,0,0-.841.841v6.726a.841.841,0,1,0,1.681,0V7.044h5.044v8.407H2.841A.841.841,0,0,0,2,16.292V33.106a.841.841,0,0,0,1.681,0V23.858H29.743a.841.841,0,0,0,0-1.681H15.451V20.5h1.681a.841.841,0,0,0,0-1.681H15.451V17.132H32.265V50.76H10.407v-4.2a.841.841,0,0,0-.841-.841H3.681V36.468a.841.841,0,0,0-1.681,0V51.6a.841.841,0,0,0,.841.841H33.106a.841.841,0,0,0,.841-.841V49.079h6.726A1.681,1.681,0,0,0,42.353,47.4V42.353a1.681,1.681,0,0,0-1.681-1.681H33.946V38.99H47.4V50.76H36.468a.841.841,0,0,0,0,1.681h11.77a.841.841,0,0,0,.841-.841V38.15a.841.841,0,0,0-.841-.841H33.946V23.017H50.76V51.6a.841.841,0,0,0,1.681,0V2.841A.841.841,0,0,0,51.6,2ZM15.451,13.77h1.681v1.681H15.451Zm-3.363-3.363H13.77v1.681H12.088Zm3.363,0h1.681v1.681H15.451Zm1.681-3.363V8.726H15.451V7.044ZM20.5,12.088H18.814V10.407H20.5ZM18.814,13.77H20.5v1.681H18.814ZM20.5,8.726H18.814V7.044H20.5ZM13.77,7.044V8.726H12.088V7.044ZM12.088,13.77H13.77v1.681H12.088ZM3.681,22.177V17.132H13.77v5.044Zm0,28.583V47.4H8.726V50.76ZM40.672,47.4H35.135l5.044-5.044h.493ZM37.8,42.353l-3.854,3.855V42.353Z" fill="#c42c40"/>
        <path id="Path_1928" data-name="Path 1928" d="M54.522,30A2.522,2.522,0,0,0,52,32.522v3.363a2.522,2.522,0,1,0,5.044,0V32.522A2.522,2.522,0,0,0,54.522,30Zm.841,5.885a.841.841,0,1,1-1.681,0V32.522a.841.841,0,0,1,1.681,0Z" transform="translate(-7.966 -4.461)" fill="#c42c40"/>
        <path id="Path_1929" data-name="Path 1929" d="M54.522,15.726a.841.841,0,0,1-.841-.841.841.841,0,1,0-1.681,0,2.522,2.522,0,1,0,5.044,0V11.522a2.522,2.522,0,1,0-5.044,0,.841.841,0,1,0,1.681,0,.841.841,0,0,1,1.681,0v3.363A.841.841,0,0,1,54.522,15.726Z" transform="translate(-7.966 -1.115)" fill="#c42c40"/>
        <circle id="Ellipse_167" data-name="Ellipse 167" cx="1" cy="1" r="1" transform="translate(27.721 18.721)" fill="#c42c40"/>
        <circle id="Ellipse_168" data-name="Ellipse 168" cx="1" cy="1" r="1" transform="translate(24.721 18.721)" fill="#c42c40"/>
        <circle id="Ellipse_169" data-name="Ellipse 169" cx="1" cy="1" r="1" transform="translate(21.721 18.721)" fill="#c42c40"/>
        <path id="Path_1930" data-name="Path 1930" d="M11.885,22H6.841a.841.841,0,1,0,0,1.681h5.044a.841.841,0,1,0,0-1.681Z" transform="translate(-0.637 -3.186)" fill="#c42c40"/>
        <path id="Path_1931" data-name="Path 1931" d="M18.921,31a10.949,10.949,0,1,0,8.9,4.6.841.841,0,1,0-1.37.975A9.268,9.268,0,1,1,24.268,34.4a.841.841,0,1,0,.975-1.37A10.854,10.854,0,0,0,18.921,31Z" transform="translate(-0.948 -4.62)" fill="#c42c40"/>
        <path id="Path_1932" data-name="Path 1932" d="M19.566,48.445a5.866,5.866,0,0,1-2.984-.821.841.841,0,1,0-.855,1.449A7.583,7.583,0,1,0,13.053,46.4a.841.841,0,1,0,1.449-.855,5.88,5.88,0,1,1,5.064,2.9Z" transform="translate(-1.593 -5.251)" fill="#c42c40"/>
        <path id="Path_1933" data-name="Path 1933" d="M34.363,31.681a.841.841,0,0,0,0-1.681H31.841a.841.841,0,1,0,0,1.681Z" transform="translate(-4.62 -4.461)" fill="#c42c40"/>
        <path id="Path_1934" data-name="Path 1934" d="M9.363,30H6.841a.841.841,0,1,0,0,1.681H9.363a.841.841,0,0,0,0-1.681Z" transform="translate(-0.637 -4.461)" fill="#c42c40"/>
        <circle id="Ellipse_170" data-name="Ellipse 170" cx="1" cy="1" r="1" transform="translate(43.721 40.721)" fill="#c42c40"/>
        <circle id="Ellipse_171" data-name="Ellipse 171" cx="1" cy="1" r="1" transform="translate(43.721 43.721)" fill="#c42c40"/>
        <ellipse id="Ellipse_172" data-name="Ellipse 172" cx="0.5" cy="1" rx="0.5" ry="1" transform="translate(7.721 8.721)" fill="#c42c40"/>
        <ellipse id="Ellipse_173" data-name="Ellipse 173" cx="0.5" cy="1" rx="0.5" ry="1" transform="translate(7.721 11.721)" fill="#c42c40"/>
      </g>
    </g>
  </g>
</svg>
