<svg xmlns="http://www.w3.org/2000/svg" width="114" height="114" viewBox="0 0 114 114">
  <g id="Microbiology_Department" data-name="Microbiology Department" transform="translate(-3766 -2722)">
    <g id="Ellipse_166" data-name="Ellipse 166" transform="translate(3766 2722)" fill="none" stroke="#393185" stroke-width="1">
      <circle cx="57" cy="57" r="57" stroke="none"/>
      <circle cx="57" cy="57" r="56.5" fill="none"/>
    </g>
    <g id="Group_1403" data-name="Group 1403" transform="translate(-116 -315)">
      <rect id="Rectangle_6150" data-name="Rectangle 6150" width="62" height="62" transform="translate(3908 3063)" fill="none"/>
      <g id="microbiology" transform="translate(3911.365 3066.365)">
        <g id="Group_1402" data-name="Group 1402" transform="translate(0)">
          <path id="Path_1891" data-name="Path 1891" d="M47.747,8.192A27.971,27.971,0,0,0,3.833,42.107a.819.819,0,0,0,1.413-.83,26.366,26.366,0,1,1,2.1,3.067.819.819,0,1,0-1.283,1.02A27.969,27.969,0,1,0,47.747,8.192Z" transform="translate(0)" fill="#c42c40"/>
          <path id="Path_1892" data-name="Path 1892" d="M78.185,54.191a.819.819,0,0,0,.789-.848A24.732,24.732,0,1,0,78.8,57.3a.819.819,0,1,0-1.626-.2,23.106,23.106,0,1,1,.159-3.694A.82.82,0,0,0,78.185,54.191Z" transform="translate(-26.277 -26.277)" fill="#c42c40"/>
          <path id="Path_1893" data-name="Path 1893" d="M193.445,173.588a2.776,2.776,0,0,0-5.429-.819h-2.1a4.707,4.707,0,0,0-.787-1.9l.867-.867a2.54,2.54,0,0,0,2.917-.482h0a2.542,2.542,0,1,0-4.076-.677l-.867.867a4.707,4.707,0,0,0-1.9-.787v-2.1a2.776,2.776,0,1,0-1.639,0v2.1a4.707,4.707,0,0,0-1.9.787l-.866-.866a2.546,2.546,0,1,0-1.159,1.158l.867.867a4.707,4.707,0,0,0-.787,1.9h-2.1a2.776,2.776,0,1,0,0,1.639h2.1a4.707,4.707,0,0,0,.787,1.9l-.867.867a2.542,2.542,0,1,0,1.159,1.159l.867-.867a4.707,4.707,0,0,0,1.9.787v2.1a2.776,2.776,0,1,0,1.639,0v-2.1a4.707,4.707,0,0,0,1.9-.787l.867.867a2.542,2.542,0,1,0,1.159-1.159l-.867-.867a4.707,4.707,0,0,0,.787-1.9h2.1a2.777,2.777,0,0,0,5.429-.82Zm-12.194,3.094a3.094,3.094,0,1,1,3.094-3.094A3.1,3.1,0,0,1,181.251,176.683Zm5.222-9.594a.9.9,0,1,1,0,1.277A.9.9,0,0,1,186.473,167.089Zm-5.222-4.056a1.138,1.138,0,1,1-1.138,1.138A1.139,1.139,0,0,1,181.251,163.033Zm-6.5,5.333a.9.9,0,0,1,1.277-1.277h0a.9.9,0,0,1-1.277,1.277Zm-2.919,6.36a1.138,1.138,0,1,1,1.138-1.138A1.139,1.139,0,0,1,171.833,174.726Zm4.2,5.362a.9.9,0,1,1,.264-.638A.9.9,0,0,1,176.029,180.087Zm5.223,4.056a1.138,1.138,0,1,1,1.137-1.138A1.139,1.139,0,0,1,181.251,184.143Zm5.861-5.6a.9.9,0,1,1-.638.264A.9.9,0,0,1,187.112,178.546Zm3.557-3.82a1.138,1.138,0,1,1,1.138-1.138A1.139,1.139,0,0,1,190.669,174.726Z" transform="translate(-150.587 -143.761)" fill="#c42c40"/>
          <path id="Path_1894" data-name="Path 1894" d="M325.882,372.739A3.123,3.123,0,1,0,329,369.616,3.126,3.126,0,0,0,325.882,372.739Zm4.606,0A1.484,1.484,0,1,1,329,371.255,1.486,1.486,0,0,1,330.488,372.739Z" transform="translate(-290.278 -329.234)" fill="#c42c40"/>
          <path id="Path_1895" data-name="Path 1895" d="M83,286.387a3.3,3.3,0,1,0-3.3-3.3A3.3,3.3,0,0,0,83,286.387Zm0-4.963a1.662,1.662,0,1,1-1.662,1.662A1.664,1.664,0,0,1,83,281.425Z" transform="translate(-70.994 -249.218)" fill="#c42c40"/>
          <path id="Path_1896" data-name="Path 1896" d="M390.517,195.3a2.838,2.838,0,1,0-2.838,2.837A2.841,2.841,0,0,0,390.517,195.3Zm-2.838,1.2a1.2,1.2,0,1,1,1.2-1.2A1.2,1.2,0,0,1,387.68,196.5Z" transform="translate(-342.796 -171.439)" fill="#c42c40"/>
          <path id="Path_1897" data-name="Path 1897" d="M121.032,100.451a.819.819,0,0,0-1.159,1.159l.672.672a3.531,3.531,0,0,0-.184,1.127,3.5,3.5,0,0,0,3.507,3.507,3.534,3.534,0,0,0,1.127-.184l.672.672a.819.819,0,0,0,1.159-1.159l-.415-.415.657-.657.415.415a.819.819,0,0,0,1.159-1.159l-.415-.415.657-.657.415.415a.819.819,0,0,0,1.159-1.159l-.507-.507a3.512,3.512,0,0,0-4.782-4.782l-.506-.506a.819.819,0,1,0-1.159,1.159l.415.415-.657.657-.415-.415a.819.819,0,0,0-1.159,1.159l.415.415-.657.657Zm1.513,1.635,3.027-3.027a1.871,1.871,0,0,1,2.646,2.646l-3.027,3.027a1.871,1.871,0,1,1-2.646-2.646Z" transform="translate(-106.563 -86.027)" fill="#c42c40"/>
          <path id="Path_1898" data-name="Path 1898" d="M71.4,180.582a.819.819,0,1,0-1.159,1.159l1.284,1.284a.819.819,0,1,0,1.159-1.159Z" transform="translate(-62.352 -160.639)" fill="#c42c40"/>
          <path id="Path_1899" data-name="Path 1899" d="M416.77,277.429a.819.819,0,1,0,1.159-1.159l-1.284-1.284a.819.819,0,1,0-1.159,1.159Z" transform="translate(-369.878 -244.728)" fill="#c42c40"/>
          <path id="Path_1900" data-name="Path 1900" d="M217,64.234a.817.817,0,0,0,.579-.24l1.284-1.284a.819.819,0,1,0-1.159-1.159l-1.284,1.284a.819.819,0,0,0,.579,1.4Z" transform="translate(-192.559 -54.613)" fill="#c42c40"/>
          <path id="Path_1901" data-name="Path 1901" d="M385.1,317.412a.817.817,0,0,0,.579-.24l1.284-1.284a.819.819,0,0,0-1.159-1.159l-1.284,1.284a.819.819,0,0,0,.579,1.4Z" transform="translate(-342.298 -280.13)" fill="#c42c40"/>
          <path id="Path_1902" data-name="Path 1902" d="M255.607,105.947h1.816a.819.819,0,1,0,0-1.639h-1.816a.819.819,0,1,0,0,1.639Z" transform="translate(-226.951 -92.912)" fill="#c42c40"/>
          <path id="Path_1903" data-name="Path 1903" d="M91.025,228.454a.819.819,0,0,0,1.159,0l1.284-1.284a.819.819,0,1,0-1.159-1.159L91.025,227.3A.819.819,0,0,0,91.025,228.454Z" transform="translate(-80.866 -201.104)" fill="#c42c40"/>
          <path id="Path_1904" data-name="Path 1904" d="M111.636,361.126a27.189,27.189,0,0,0,3.031,2.074,2.909,2.909,0,0,0,1.473.411,2.62,2.62,0,0,0,.641-.08,2.815,2.815,0,0,0,1.55,1.471,27.229,27.229,0,0,0,3.459,1.125,2.988,2.988,0,0,0,.733.092,2.725,2.725,0,0,0,1.385-.37,2.823,2.823,0,0,0,1.906.977c.867.084,1.744.126,2.618.126q.528,0,1.054-.021a2.844,2.844,0,0,0,2.073-.973,2.2,2.2,0,0,0,.528-1.717,2.655,2.655,0,0,0-2.791-2.187,22.337,22.337,0,0,1-3.012-.087,2.8,2.8,0,0,0-1.773.425,2.793,2.793,0,0,0-1.525-1,22.337,22.337,0,0,1-2.838-.923,2.787,2.787,0,0,0-1.818-.087,2.8,2.8,0,0,0-1.186-1.389,22.31,22.31,0,0,1-2.487-1.7,2.656,2.656,0,0,0-3.542.127,2.2,2.2,0,0,0-.583,1.7A2.845,2.845,0,0,0,111.636,361.126ZM125.01,364.3a.985.985,0,0,1,1-.706q.056,0,.113.005a23.98,23.98,0,0,0,3.231.093,1.029,1.029,0,0,1,1.1.762.587.587,0,0,1-.155.448,1.222,1.222,0,0,1-.884.393h0a25.552,25.552,0,0,1-3.45-.1,1.168,1.168,0,0,1-.831-.428A.6.6,0,0,1,125.01,364.3Zm-6.735-1.945a.907.907,0,0,1,.826-.444,1.185,1.185,0,0,1,.438.084,23.975,23.975,0,0,0,3.044.99,1,1,0,0,1,.812,1.036.6.6,0,0,1-.281.4,1.161,1.161,0,0,1-.922.123h0a25.586,25.586,0,0,1-3.251-1.057,1.161,1.161,0,0,1-.673-.642.6.6,0,0,1,.006-.486Zm-5.97-3.8a.807.807,0,0,1,.6-.232,1.223,1.223,0,0,1,.744.265,23.94,23.94,0,0,0,2.668,1.825,1.007,1.007,0,0,1,.493,1.224.6.6,0,0,1-.38.3,1.167,1.167,0,0,1-.924-.143h0a25.54,25.54,0,0,1-2.849-1.949,1.223,1.223,0,0,1-.484-.837.588.588,0,0,1,.138-.454Z" transform="translate(-98.449 -317.711)" fill="#c42c40"/>
          <path id="Path_1905" data-name="Path 1905" d="M307.2,72.528a.819.819,0,1,0,.651-1.5,2.486,2.486,0,0,0-3.271.994,2.656,2.656,0,0,0,1.11,3.367,22.3,22.3,0,0,1,2.458,1.742,2.8,2.8,0,0,0,1.713.628,2.789,2.789,0,0,0,.713,1.677,22.343,22.343,0,0,1,1.85,2.342,2.749,2.749,0,0,0,2.239,1.2,2.37,2.37,0,0,0,1.166-.3,2.216,2.216,0,0,0,1.068-1.458,2.8,2.8,0,0,0-.449-2.206,27.212,27.212,0,0,0-2.255-2.854,2.816,2.816,0,0,0-1.916-.944,2.821,2.821,0,0,0-1.042-1.867l-.046-.036a.819.819,0,1,0-1.032,1.273l.04.031a1.168,1.168,0,0,1,.454.818.6.6,0,0,1-.151.461,1.007,1.007,0,0,1-1.318-.037,23.933,23.933,0,0,0-2.637-1.869,1.028,1.028,0,0,1-.5-1.246A.886.886,0,0,1,307.2,72.528Zm4.489,4.495a.6.6,0,0,1,.449-.174h0a1.16,1.16,0,0,1,.835.409h0a25.588,25.588,0,0,1,2.119,2.682,1.16,1.16,0,0,1,.2.907.6.6,0,0,1-.274.4,1,1,0,0,1-1.252-.4,23.982,23.982,0,0,0-1.984-2.512A1,1,0,0,1,311.686,77.023Z" transform="translate(-271.088 -63.05)" fill="#c42c40"/>
        </g>
      </g>
    </g>
  </g>
</svg>
